{
  "name" : "maskOK",
  "type" : "NLPIntent",
  "trackingId" : "7498CF26-8674-40B3-AC59-C290935A5FCF",
  "enabled" : true,
  "intentParameters" : [ ],
  "exampleData" : [ {
    "sentence" : "Ok mask",
    "trackingId" : "843F7B1C-8ED4-479C-8E31-304E026C2015",
    "translated" : null,
    "detectedLanguage" : null,
    "translatedLanguage" : null,
    "translatedBy" : null,
    "exampleEntities" : [ ]
  }, {
    "sentence" : "maskok",
    "trackingId" : "292735FB-4B33-4C4E-A527-E88B8FDA47B8",
    "translated" : null,
    "detectedLanguage" : null,
    "translatedLanguage" : null,
    "translatedBy" : null,
    "exampleEntities" : [ ]
  }, {
    "sentence" : "Mask is wearing properly",
    "trackingId" : "B4C6DDE2-65E7-4D03-A6C5-59638AD9D623",
    "translated" : null,
    "detectedLanguage" : null,
    "translatedLanguage" : null,
    "translatedBy" : null,
    "exampleEntities" : [ ]
  }, {
    "sentence" : "Your mask is ok",
    "trackingId" : "D3B1A722-6275-4AD8-A5BF-4C69CDBF6DBA",
    "translated" : null,
    "detectedLanguage" : null,
    "translatedLanguage" : null,
    "translatedBy" : null,
    "exampleEntities" : [ ]
  }, {
    "sentence" : "The mask is covering nose and mouth, good!",
    "trackingId" : "9D08592A-6A23-4EB7-8C73-4C49DEE55D70",
    "translated" : null,
    "detectedLanguage" : null,
    "translatedLanguage" : null,
    "translatedBy" : null,
    "exampleEntities" : [ ]
  } ],
  "autoCompleteData" : [ ]
}