{
  "name" : "passcodeKO",
  "type" : "NLPIntent",
  "trackingId" : "976E0339-922E-4BD7-AAC9-EA4C6332B346",
  "enabled" : true,
  "intentParameters" : [ ],
  "exampleData" : [ {
    "sentence" : "88888",
    "trackingId" : "075A27A5-F1A3-4C93-B026-81788206E4B1",
    "translated" : null,
    "detectedLanguage" : null,
    "translatedLanguage" : null,
    "translatedBy" : null,
    "exampleEntities" : [ ]
  }, {
    "sentence" : "55555",
    "trackingId" : "C96C9716-0441-4AD1-BAF6-6A6C61A7C7E7",
    "translated" : null,
    "detectedLanguage" : null,
    "translatedLanguage" : null,
    "translatedBy" : null,
    "exampleEntities" : [ ]
  }, {
    "sentence" : "99999",
    "trackingId" : "95BDE78D-080F-4877-BC1D-97D1BFDEC976",
    "translated" : null,
    "detectedLanguage" : null,
    "translatedLanguage" : null,
    "translatedBy" : null,
    "exampleEntities" : [ ]
  }, {
    "sentence" : "77777",
    "trackingId" : "CA72E5CF-EEB5-4EC4-83D8-2ED71ED92B39",
    "translated" : null,
    "detectedLanguage" : null,
    "translatedLanguage" : null,
    "translatedBy" : null,
    "exampleEntities" : [ ]
  }, {
    "sentence" : "66666",
    "trackingId" : "5F3FC123-DE9B-45D2-BA74-8DB9C73B362D",
    "translated" : null,
    "detectedLanguage" : null,
    "translatedLanguage" : null,
    "translatedBy" : null,
    "exampleEntities" : [ ]
  } ],
  "autoCompleteData" : [ ]
}