{
  "name" : "passcodeOk",
  "description" : "The passcode is ok.",
  "type" : "NLPIntent",
  "trackingId" : "A45610B4-A296-44E5-9EFA-A19392C4237E",
  "enabled" : true,
  "intentParameters" : [ ],
  "exampleData" : [ {
    "sentence" : "11223",
    "trackingId" : "92C9876C-8927-4ABD-8865-A3E11299A409",
    "translated" : null,
    "detectedLanguage" : null,
    "translatedLanguage" : null,
    "translatedBy" : null,
    "exampleEntities" : [ ]
  }, {
    "sentence" : "11111",
    "trackingId" : "76BAD4B0-2124-4408-8618-83526D52A7A0",
    "translated" : null,
    "detectedLanguage" : null,
    "translatedLanguage" : null,
    "translatedBy" : null,
    "exampleEntities" : [ ]
  }, {
    "sentence" : "12345",
    "trackingId" : "EB7AA8A2-8129-4E3C-81C8-58A294881C20",
    "translated" : null,
    "detectedLanguage" : null,
    "translatedLanguage" : null,
    "translatedBy" : null,
    "exampleEntities" : [ ]
  }, {
    "sentence" : "54321",
    "trackingId" : "842E228F-813E-456C-BED8-B4F6A4777D47",
    "translated" : null,
    "detectedLanguage" : null,
    "translatedLanguage" : null,
    "translatedBy" : null,
    "exampleEntities" : [ ]
  }, {
    "sentence" : "12211",
    "trackingId" : "D9C846B0-E36E-480B-AE03-FD6CD76156C5",
    "translated" : null,
    "detectedLanguage" : null,
    "translatedLanguage" : null,
    "translatedBy" : null,
    "exampleEntities" : [ ]
  } ],
  "autoCompleteData" : [ ]
}