{
  "invocationName" : "HealthGuardDA",
  "shortDescription" : "Digital Assistant for Health Guard, with new features like passcode and operator",
  "fullDescription" : null,
  "trackingId" : "03FEEBEA-EBD5-43A3-B3E8-3FAFB2A86656",
  "sampleInvocations" : [ "An example utterance" ]
}